{
    "count": 1154,
    "next": "https://pokeapi.co/api/v2/pokemon/?offset=60&limit=20",
    "previouss": "https://pokeapi.co/api/v2/pokemon/?offset=20&limit=20",
    "results": [
        {
            "name": "andi ganteng",
            "url": "https://pokeapi.co/api/v2/pokemon/41/"
        },
        {
            "name": "golbat",
            "url": "https://pokeapi.co/api/v2/pokemon/42/"
        },
        {
            "name": "oddish",
            "url": "https://pokeapi.co/api/v2/pokemon/43/"
        },
        {
            "name": "gloom",
            "url": "https://pokeapi.co/api/v2/pokemon/44/"
        },
        {
            "name": "vileplume",
            "url": "https://pokeapi.co/api/v2/pokemon/45/"
        },
        {
            "name": "paras",
            "url": "https://pokeapi.co/api/v2/pokemon/46/"
        },
        {
            "name": "parasect",
            "url": "https://pokeapi.co/api/v2/pokemon/47/"
        },
        {
            "name": "venonat",
            "url": "https://pokeapi.co/api/v2/pokemon/48/"
        },
        {
            "name": "venomoth",
            "url": "https://pokeapi.co/api/v2/pokemon/49/"
        },
        {
            "name": "diglett",
            "url": "https://pokeapi.co/api/v2/pokemon/50/"
        },
        {
            "name": "dugtrio",
            "url": "https://pokeapi.co/api/v2/pokemon/51/"
        },
        {
            "name": "meowth",
            "url": "https://pokeapi.co/api/v2/pokemon/52/"
        },
        {
            "name": "persian",
            "url": "https://pokeapi.co/api/v2/pokemon/53/"
        },
        {
            "name": "psyduck",
            "url": "https://pokeapi.co/api/v2/pokemon/54/"
        },
        {
            "name": "golduck",
            "url": "https://pokeapi.co/api/v2/pokemon/55/"
        },
        {
            "name": "mankey",
            "url": "https://pokeapi.co/api/v2/pokemon/56/"
        },
        {
            "name": "primeape",
            "url": "https://pokeapi.co/api/v2/pokemon/57/"
        },
        {
            "name": "growlithe",
            "url": "https://pokeapi.co/api/v2/pokemon/58/"
        },
        {
            "name": "arcanine",
            "url": "https://pokeapi.co/api/v2/pokemon/59/"
        },
        {
            "name": "poliwag",
            "url": "https://pokeapi.co/api/v2/pokemon/60/"
        }
    ]
}

